bomWater
…
Using get_station_list()

‘get_station_list’ queries Water Data Online and returns station details. Queries can be input with the desired ‘parameter_type’ to find all the stations on record. If you already have a vector of station numbers, you can pass the vector to ‘station_number’ and return the details of those stations. ‘return_fields’ can be customised to return various data about the stations.

Results

With the default return fields, a tibble with columns station_name, station_no, station_id, station_latitude, station_longitude.

Example

# Get a list of groundwater bores available from water data online
get_station_list(parameter_type = "Ground Water Level")
#> No encoding supplied: defaulting to UTF-8.
#> # A tibble: 4,440 x 5
#>    station_name station_no station_id station_latitude station_longitude
#>    <chr>        <chr>           <int>            <dbl>             <dbl>
#>  1 01/DD01 D    60930131       387998            -33.2              118.
#>  2 01/DD01 OB   60930132       388003            -33.2              118.
#>  3 01/DD04 S    60930135       388008            -33.2              118.
#>  4 02/DD25 OB   60930141       388013            -33.2              118.
#>  5 02/DD26 OB   60930142       388018            -33.2              118.
#>  6 02/DD27 OB   60930143       388023            -33.2              118.
#>  7 02/DD28 OB   60930144       388028            -33.2              118.
#>  8 02/DD29 OB   60930145       388033            -33.2              118.
#>  9 02/DD30 OB   60930146       388038            -33.2              118.
#> 10 02/DD31 OB   60930147       388043            -33.2              118.
#> # … with 4,430 more rows
…
Returns a tibble with Timestamp, Value and Quality Code.

Example

# Cotter River at Gingera
get_hourly(
  parameter_type = "Water Course Discharge",
  station_number = "410730",
  start_date = "2020-01-01",
  end_date = "2020-01-31"
)
#> No encoding supplied: defaulting to UTF-8.
#> No encoding supplied: defaulting to UTF-8.
#> No encoding supplied: defaulting to UTF-8.
#> # A tibble: 744 x 3
#>    Timestamp           Value `Quality Code`
#>    <dttm>              <dbl>          <int>
#>  1 2020-01-01 00:00:00 0.013             10
#>  2 2020-01-01 01:00:00 0.013             10
#>  3 2020-01-01 02:00:00 0.014             10
#>  4 2020-01-01 03:00:00 0.014             10
#>  5 2020-01-01 04:00:00 0.014             10
#>  6 2020-01-01 05:00:00 0.014             10
#>  7 2020-01-01 06:00:00 0.014             10
#>  8 2020-01-01 07:00:00 0.014             10
#>  9 2020-01-01 08:00:00 0.015             10
#> 10 2020-01-01 09:00:00 0.015             10
#> # … with 734 more rows

# Corin Reservoir
get_hourly(
  parameter_type = "Storage Volume",
  station_number = "410742",
  start_date = "2020-01-01",
  end_date = "2020-01-31"
)
#> No encoding supplied: defaulting to UTF-8.
#> No encoding supplied: defaulting to UTF-8.
#> No encoding supplied: defaulting to UTF-8.
#> # A tibble: 744 x 3
#>    Timestamp            Value `Quality Code`
#>    <dttm>               <dbl>          <int>
#>  1 2020-01-01 00:00:00 13109.             10
#>  2 2020-01-01 01:00:00 13108.             10
#>  3 2020-01-01 02:00:00 13108.             10
#>  4 2020-01-01 03:00:00 13107.             10
#>  5 2020-01-01 04:00:00 13107.             10
#>  6 2020-01-01 05:00:00 13106.             10
#>  7 2020-01-01 06:00:00 13105.             10
#>  8 2020-01-01 07:00:00 13104.             10
#>  9 2020-01-01 08:00:00 13103.             10
#> 10 2020-01-01 09:00:00 13102.             10
#> # … with 734 more rows
…
Examples

# Daily mean streamflow from Cotter River at Gingera (in m3/s) between 09-09
get_daily(
  parameter_type = "Water Course Discharge",
  station_number = "410730",
  start_date     = "2020-01-01",
  end_date       = "2020-01-31",
  aggregation    = "09HR"
)
#> No encoding supplied: defaulting to UTF-8.
#> No encoding supplied: defaulting to UTF-8.
#> No encoding supplied: defaulting to UTF-8.
#> # A tibble: 31 x 3
#>    Timestamp           Value `Quality Code`
#>    <dttm>              <dbl>          <int>
#>  1 2020-01-01 09:00:00 0.014             10
#>  2 2020-01-02 09:00:00 0.013             10
#>  3 2020-01-03 09:00:00 0.013             10
#>  4 2020-01-04 09:00:00 0.01              10
#>  5 2020-01-05 09:00:00 0.008             10
#>  6 2020-01-06 09:00:00 0.012             10
#>  7 2020-01-07 09:00:00 0.019             10
#>  8 2020-01-08 09:00:00 0.021             10
#>  9 2020-01-09 09:00:00 0.018             10
#> 10 2020-01-10 09:00:00 0.016             10
#> # … with 21 more rows

# Daily max, only available over the standard day
get_daily(
  parameter_type = "Water Course Discharge",
  station_number = "410730",
  start_date     = "2020-01-01",
  end_date       = "2020-01-31",
  var            = "max"
)
#> No encoding supplied: defaulting to UTF-8.
#> No encoding supplied: defaulting to UTF-8.
#> No encoding supplied: defaulting to UTF-8.
#> # A tibble: 31 x 3
#>    Timestamp           Value `Quality Code`
#>    <dttm>              <dbl>          <int>
#>  1 2020-01-01 00:00:00 0.015             10
#>  2 2020-01-02 00:00:00 0.014             10
#>  3 2020-01-03 00:00:00 0.013             10
#>  4 2020-01-04 00:00:00 0.01              10
#>  5 2020-01-05 00:00:00 0.012             10
#>  6 2020-01-06 00:00:00 0.02              10
#>  7 2020-01-07 00:00:00 0.026             10
#>  8 2020-01-08 00:00:00 0.019             10
#>  9 2020-01-09 00:00:00 0.018             10
#> 10 2020-01-10 00:00:00 0.016             10
#> # … with 21 more rows

# Daily mean wind speed at Corin Dam
get_daily(
  parameter_type = "Wind Speed",
  station_number = "570947",
  start_date     = "2020-01-01",
  end_date       = "2020-01-31"
)
#> No encoding supplied: defaulting to UTF-8.
#> No encoding supplied: defaulting to UTF-8.
#> No encoding supplied: defaulting to UTF-8.
#> # A tibble: 31 x 3
#>    Timestamp           Value `Quality Code`
#>    <dttm>              <dbl>          <int>
#>  1 2020-01-01 00:00:00  4.9              10
#>  2 2020-01-02 00:00:00  4.07             10
#>  3 2020-01-03 00:00:00  4.43             10
#>  4 2020-01-04 00:00:00  7.43             10
#>  5 2020-01-05 00:00:00  5.66             10
#>  6 2020-01-06 00:00:00  2.87             10
#>  7 2020-01-07 00:00:00  5.95             10
#>  8 2020-01-08 00:00:00  5.65             10
#>  9 2020-01-09 00:00:00  5.3              10
#> 10 2020-01-10 00:00:00  5.89             10
#> # … with 21 more rows
…
Examples

# Annual rainfall at Berthong in Cootamundra
berthong <- get_as_stored(
  parameter_type = "Rainfall",
  station_number = "41000207",
  start_date     = "2019-01-01",
  end_date       = "2019-12-31"
)
#> No encoding supplied: defaulting to UTF-8.
#> No encoding supplied: defaulting to UTF-8.
#> No encoding supplied: defaulting to UTF-8.
berthong
#> # A tibble: 9,896 x 3
#>    Timestamp           Value `Quality Code`
#>    <dttm>              <dbl>          <int>
#>  1 2019-01-01 00:00:00     0            140
#>  2 2019-01-01 01:00:00     0            140
#>  3 2019-01-01 02:00:00     0            140
#>  4 2019-01-01 03:00:00     0            140
#>  5 2019-01-01 04:00:00     0            140
#>  6 2019-01-01 05:00:00     0            140
#>  7 2019-01-01 06:00:00     0            140
#>  8 2019-01-01 07:00:00     0            140
#>  9 2019-01-01 08:00:00     0            140
#> 10 2019-01-01 09:00:00     0            140
#> # … with 9,886 more rows
…
